<?xml version="1.0" encoding="UTF-8"?>
<svg width="97px" height="10px" viewBox="0 0 97 10" version="1.1" xmlns="http://www.w3.org/2000/svg" xmlns:xlink="http://www.w3.org/1999/xlink">
    <g id="Home" stroke="none" stroke-width="1" fill="none" fill-rule="evenodd">
        <g transform="translate(-1115.000000, -2903.000000)" fill="#E4A792" fill-rule="nonzero" id="News">
            <g transform="translate(0.000000, 2715.000000)">
                <path id="arrow-right-long" d="M1202.52368,188.45556 L1211.49999,193.002618 L1202.47656,197.455436 L1202.497,193.455 L1115.49738,192.999993 L1114.99739,192.997375 L1115.00262,191.997389 L1115.50262,192.000007 L1202.502,192.455 L1202.52368,188.45556 Z"></path>
            </g>
        </g>
    </g>
</svg>