<?xml version="1.0" encoding="UTF-8"?>
<svg width="65px" height="10px" viewBox="0 0 65 10" version="1.1" xmlns="http://www.w3.org/2000/svg" xmlns:xlink="http://www.w3.org/1999/xlink">
    <g id="Home" stroke="none" stroke-width="1" fill="none" fill-rule="evenodd">
        <g transform="translate(-894.000000, -1799.000000)" fill="#FFFFFF" fill-rule="nonzero" id="Projects">
            <g transform="translate(0.000000, 1193.000000)">
                <path id="arrow-right-white" d="M949.517996,606.466171 L958.499996,611.001992 L949.482139,615.4661 L949.498,611.466 L895.248008,611.249996 L894.748012,611.248004 L894.751996,610.248012 L895.251992,610.250004 L949.501,610.466 L949.517996,606.466171 Z"></path>
            </g>
        </g>
    </g>
</svg>